university_name,total_score,alumni,award,hici,ns,pub,pcp,year,world_rank.1,national_rank.1
"Harvard University",100,100,100,100,100,100,72.4,2005,1,1
"University of Cambridge",73.6,100,93,53.3,56.6,70.9,66.9,2005,2,1
"Stanford University",73.4,41,72,88.5,70.9,72.3,65,2005,3,2
"University of California, Berkeley",72.8,72,76,69.4,73.9,72.2,52.7,2005,4,3
"Massachusetts Institute of Technology (MIT)",70.1,74,81,66.7,65.8,64.3,53,2005,5,4
"California Institute of Technology",67.1,59,69,59.8,65.8,52.5,100,2005,6,5
"Columbia University",62.3,79,61,56.1,54.2,69.5,45.4,2005,7,6
"Princeton University",60.9,63,77,60.9,48.7,48.5,59.1,2005,8,7
"University of Chicago",60.1,76,82,50.3,44.7,56.4,42.2,2005,9,8
"University of Oxford",59.7,64,59,48.4,55.6,68.4,53.2,2005,10,2
"Yale University",56.9,52,44,60.3,57.2,63.9,49.3,2005,11,9
"Cornell University",54.6,46,52,55,48.8,66.3,39.8,2005,12,10
"University of California, San Diego",51,18,35,59.8,56.5,64.5,46.6,2005,13,11
"University of California, Los Angeles",50.6,27,33,56.7,50.1,75.6,34.3,2005,14,12
"University of Pennsylvania",50.2,36,35,56.7,42.9,71.8,39.1,2005,15,13
"University of Wisconsin - Madison",49.2,43,36,52.1,46.3,68.7,29,2005,16,14
"University of Washington",48.4,29,32,53.9,47.1,73.8,27.2,2005,17,15
"University of California, San Francisco",47.8,0,38,55.6,57.9,58.8,45.2,2005,18,16
"The Johns Hopkins University",46.9,51,28,41.6,52.2,67.7,24.9,2005,19,17
"The University of Tokyo",46.7,36,14,38.5,52.1,86.5,34.7,2005,20,1
"University of Michigan - Ann Arbor",44.9,43,0,61.9,43,76.5,30.9,2005,21,18
"Kyoto University",43.8,40,34,34.2,37,72.3,31.1,2005,22,2
"The Imperial College of Science, Technology and Medicine",43.7,21,38,40.8,38.2,64.6,40.3,2005,23,3
"University of Toronto",43.1,28,20,39.3,38.9,76.7,41.9,2005,24,1
"University of Illinois at Urbana-Champaign",42.8,42,37,44.4,34.1,58,26,2005,25,19
"University College London",42.6,31,33,37.7,41.5,60.5,38.8,2005,26,4
"Swiss Federal Institute of Technology Zurich",41.7,40,37,35.1,41.1,43.4,52.4,2005,27,1
"Washington University in St. Louis",40.7,25,27,38.5,46.5,53.9,39.9,2005,28,20
"New York University",38.8,34,25,43,35.3,55.4,26.3,2005,29,21
"Rockefeller University",38.2,23,60,28.3,44.1,24,35.9,2005,30,22
"Northwestern University",37.9,22,19,44.4,33.8,57.6,36.2,2005,31,23
"Duke University",37.7,21,0,47.1,45.3,60.8,38.9,2005,32,24
"University of California, Santa Barbara",36.9,0,36,42.3,39,44.1,35.8,2005,34,26
"University of Colorado at Boulder",36.3,17,30,40.8,36.6,46.3,29.5,2005,35,27
"The University of Texas at Austin",35.5,22,17,49.1,30,54.8,21.7,2005,36,28
"University of British Columbia",35.4,21,19,32.4,32.5,60.4,33.9,2005,37,2
"The University of Texas Southwestern Medical Center at Dallas",34.8,24,34,31.4,38.2,37.9,31,2005,38,29
"Pennsylvania State University - University Park",33.4,14,0,45.8,37.9,59.9,24,2005,39,30
"University of California, Davis",32.9,0,0,46.5,34.5,64,29.8,2005,41,32
"Rutgers, The State University of New Jersey - New Brunswick",32.3,15,20,36.9,32.9,47.1,24.1,2005,43,33
"Karolinska Institute",32.1,31,28,33.3,19.7,47.3,25.1,2005,45,1
"Pierre and Marie  Curie University - Paris 6",32,36,24,23.6,24.2,51.2,30,2005,46,1
"The University of Edinburgh",31.8,23,17,26.1,35.8,49.4,29.9,2005,47,5
"University of Southern California",31.7,0,27,37.7,23.6,52.8,25.8,2005,50,37
"University of Munich",31.4,37,21,15.7,30.4,51.9,30,2005,51,1
"Technical University Munich",31.3,43,24,24.8,20.7,46.5,29.2,2005,52,2
"The University of Manchester",31.2,27,19,23.6,22.6,57.3,30.4,2005,53,6
"Carnegie Mellon University",30.8,31,34,32.4,14.7,38.3,31.4,2005,54,38
"University of North Carolina at Chapel Hill",30.3,12,0,35.1,32.8,59.5,27.3,2005,55,39
"The Australian National University",30.2,18,13,36.9,29,45.1,27.8,2005,56,1
"University of Copenhagen",30,31,25,23.6,22.8,45.7,27.7,2005,57,1
"Uppsala University",29.9,26,33,11.1,28.7,49.1,21.6,2005,60,2
"University of Paris Sud (Paris 11)",29.4,33,34,13.6,19.6,44.9,27.9,2005,61,2
"Osaka University",29.3,12,0,23.6,31.1,66.8,29.2,2005,62,3
"The Ohio State University - Columbus",29.2,18,0,40.8,21.5,61.2,19.5,2005,63,41
"University of Bristol",28.8,11,18,30.4,24.5,47.5,27.4,2005,64,7
"The University of Sheffield",28.6,24,14,23.6,29.2,46.6,27.1,2005,65,8
"McGill University",28.4,29,0,28.3,23.6,56.8,30,2005,67,3
"Case Western Reserve University",28.3,41,12,20.8,23,44.8,33.7,2005,69,43
"University of Heidelberg",28,11,28,20.8,20.9,48.1,26.9,2005,71,3
"Leiden University",27.9,25,16,27.2,19.3,46.7,28.1,2005,72,2
"Tohoku University",27.8,19,0,19.2,26.9,65.3,29,2005,73,4
"Purdue University - West Lafayette",27.7,19,17,27.2,21.4,49.8,19.4,2005,75,45
"University of Helsinki",27.4,19,18,15.7,21.4,54.5,27.5,2005,76,1
"Michigan State University",26.9,12,0,37.7,26.6,51,18.7,2005,77,46
"Rice University",26.2,22,22,23.6,24.4,30.8,31,2005,78,47
"Boston University",26.1,15,0,31.4,28.1,50.8,17.5,2005,80,48
"University of Melbourne",26,15,14,22.2,18.7,53.5,19.9,2005,82,2
"University of Nottingham",25.9,15,20,20.8,19,45.6,24.8,2005,83,10
"University of Goettingen",25.8,39,20,15.7,17.5,40.2,24.5,2005,84,4
"University of Vienna",25.6,25,16,7.9,22.7,52.2,26.4,2005,85,1
"Brown University",25.4,0,14,29.4,25.5,40.7,27.9,2005,86,49
"Indiana University Bloomington",25.2,14,18,24.8,21.2,42,18.2,2005,87,50
"Texas A&M University - College Station",25.1,0,0,32.4,24.4,55,20.4,2005,89,51
"McMaster University",24.9,17,19,22.2,15.9,43.5,23.9,2005,90,4
"University of Strasbourg",24.7,29,23,19.2,19.5,32.7,22.4,2005,92,3
"Ecole Normale Superieure - Paris",24.6,48,25,13.6,18.1,27.2,23.3,2005,93,4
"University of Roma - La Sapienza",24.5,17,16,11.1,21.8,54.6,15.1,2005,97,1
"University of Birmingham",24.4,25,11,22.2,13.4,47,24.5,2005,98,11
"Lund University",24.3,29,0,24.8,19.4,50.1,18.1,2005,99,4
"Tufts University",23.9,19,17,20.8,19.1,37.4,25.2,2005,100,53
