school_name,country,id_school_name
"Harvard University","United States of America",0
"California Institute of Technology","United States of America",1
"Massachusetts Institute of Technology","United States of America",2
"Stanford University","United States of America",3
"Princeton University","United States of America",4
"University of California, Berkeley","United States of America",7
"Yale University","United States of America",9
"University of California, Los Angeles","United States of America",10
"University of Chicago","United States of America",11
"Johns Hopkins University","United States of America",12
"Cornell University","United States of America",13
"University of Michigan","United States of America",15
"Columbia University","United States of America",17
"University of Pennsylvania","United States of America",18
"Carnegie Mellon University","United States of America",19
"University of Washington","United States of America",22
"Duke University","United States of America",23
"Northwestern University","United States of America",24
"Georgia Institute of Technology","United States of America",26
"University of California, Santa Barbara","United States of America",28
"University of North Carolina at Chapel Hill","United States of America",30
"University of California, San Diego","United States of America",31
"University of Illinois at Urbana-Champaign","United States of America",32
"Washington University in St Louis","United States of America",37
"University of Wisconsin","United States of America",45
"Rice University","United States of America",46
"University of California, Irvine","United States of America",48
"Vanderbilt University","United States of America",50
"University of Minnesota","United States of America",51
"Tufts University","United States of America",52
"University of California, Davis","United States of America",53
"Brown University","United States of America",54
"University of Massachusetts","United States of America",55
"Boston University","United States of America",58
"New York University","United States of America",59
"Emory University","United States of America",60
"University of Notre Dame","United States of America",62
"University of Pittsburgh","United States of America",63
"Case Western Reserve University","United States of America",64
"Ohio State University","United States of America",65
"University of Colorado Boulder","United States of America",66
"University of California, Santa Cruz","United States of America",68
"Yeshiva University","United States of America",69
"University of Virginia","United States of America",71
"University of Southern California","United States of America",73
"William & Mary","United States of America",74
"Stony Brook University","United States of America",77
"University of Utah","United States of America",83
"Wake Forest University","United States of America",91
"George Washington University","United States of America",94
"University of Arizona","United States of America",95
"University of Maryland, College Park","United States of America",97
"Dartmouth College","United States of America",98
"Rensselaer Polytechnic Institute","United States of America",103
"Rutgers, the State University of New Jersey","United States of America",104
"Purdue University","United States of America",105
"Pennsylvania State University","United States of America",108
"University of Hawai’i at Mānoa","United States of America",115
"University of California, Riverside","United States of America",116
"Michigan State University","United States of America",121
"University of Iowa","United States of America",133
"Indiana University","United States of America",155
"Iowa State University","United States of America",156
"Georgia Health Sciences University","United States of America",157
"University of Delaware","United States of America",159
"Arizona State University","United States of America",160
"Boston College","United States of America",161
"Georgetown University","United States of America",163
"Drexel University","United States of America",189
"University of Cincinnati","United States of America",190
"Kent State University","United States of America",195
"University of Illinois at Chicago","United States of America",196
"University of Wisconsin-Madison","United States of America",200
"University of Texas at Austin","United States of America",201
"University of Rochester","United States of America",202
"University of Florida","United States of America",205
"Brandeis University","United States of America",206
"Medical University of South Carolina","United States of America",211
"Texas A&M University","United States of America",212
"University of Miami","United States of America",217
"Colorado School of Mines","United States of America",228
"Northeastern University","United States of America",230
"Tulane University","United States of America",232
"University at Buffalo","United States of America",235
"University of Georgia","United States of America",237
"University of Medicine and Dentistry of New Jersey","United States of America",239
"University of South Carolina","United States of America",241
"Colorado State University","United States of America",248
"Creighton University","United States of America",249
"State University of New York Albany","United States of America",253
"University of Missouri","United States of America",260
"University of Texas at Dallas","United States of America",277
"Virginia Polytechnic Institute and State University","United States of America",282
"Wayne State University","United States of America",283
"University of Kansas","United States of America",299
"University of Kentucky","United States of America",300
"University of Texas at San Antonio","United States of America",303
"Binghamton University, State University of New York","United States of America",309
"George Mason University","United States of America",313
"Lehigh University","United States of America",318
"University of Houston","United States of America",333
"University of Maryland, Baltimore County","United States of America",337
"University of Oklahoma","United States of America",339
"University of South Florida","United States of America",342
"Washington State University","United States of America",352
"Auburn University","United States of America",354
"Clemson University","United States of America",355
"Georgia State University","United States of America",359
"Kansas State University","United States of America",364
"Michigan Technological University","United States of America",373
"New Jersey Institute of Technology","United States of America",378
"Old Dominion University","United States of America",380
"University of Idaho","United States of America",391
"University of Wyoming","United States of America",399
"Florida Institute of Technology","United States of America",409
"University of Connecticut","United States of America",415
"University of Oregon","United States of America",416
"Oregon State University","United States of America",418
"University of Montana","United States of America",419
"North Carolina State University","United States of America",426
"University of Vermont","United States of America",431
"Southern Methodist University","United States of America",436
"Temple University","United States of America",437
"University of Nebraska-Lincoln","United States of America",447
"University of Alaska Fairbanks","United States of America",448
"San Diego State University","United States of America",455
"Syracuse University","United States of America",460
"University of New Mexico","United States of America",465
"Illinois Institute of Technology","United States of America",469
"University of Nebraska Medical Center","United States of America",472
"Florida State University","United States of America",486
"Oregon Health and Science University","United States of America",487
"Rush University","United States of America",491
"Saint Louis University","United States of America",496
"University of Tennessee, Knoxville","United States of America",497
"Medical College of Wisconsin","United States of America",503
"University of South Dakota","United States of America",515
"American University","United States of America",518
"Florida International University","United States of America",530
"Howard University","United States of America",532
"Louisiana State University","United States of America",537
"University of San Francisco","United States of America",552
"University of Arkansas","United States of America",565
"Missouri University of Science and Technology","United States of America",596
"Montana State University","United States of America",597
"New Mexico State University","United States of America",601
"University of North Carolina at Greensboro","United States of America",602
"Oklahoma State University","United States of America",603
"Portland State University","United States of America",609
"University of Texas at Arlington","United States of America",624
"University of Toledo","United States of America",626
"University of Tulsa","United States of America",628
"University of Wisconsin-Milwaukee","United States of America",630
"California State University, Long Beach","United States of America",660
"Miami University","United States of America",729
"Oakland University","United States of America",746
"Ohio University","United States of America",748
"Rochester Institute of Technology","United States of America",761
"University of Southern Mississippi","United States of America",782
"University of Texas at El Paso","United States of America",792
"Texas Tech University","United States of America",793
"University of Cambridge","United Kingdom",5
"University of Oxford","United Kingdom",6
"Imperial College London","United Kingdom",8
"University College London","United Kingdom",21
"University of Edinburgh","United Kingdom",39
"University of Bristol","United Kingdom",67
"King’s College London","United Kingdom",76
"University of Sussex","United Kingdom",79
"University of York","United Kingdom",81
"Durham University","United Kingdom",84
"London School of Economics and Political Science","United Kingdom",85
"University of Manchester","United Kingdom",86
"Royal Holloway, University of London","United Kingdom",87
"University of Southampton","United Kingdom",89
"University of St Andrews","United Kingdom",102
"Queen Mary University of London","United Kingdom",120
"Lancaster University","United Kingdom",124
"University of Glasgow","United Kingdom",127
"University of Sheffield","United Kingdom",136
"University of Dundee","United Kingdom",140
"University of Birmingham","United Kingdom",145
"University of Aberdeen","United Kingdom",149
"Birkbeck, University of London","United Kingdom",151
"Newcastle University","United Kingdom",152
"University of Liverpool","United Kingdom",165
"University of Leeds","United Kingdom",167
"University of East Anglia","United Kingdom",174
"University of Nottingham","United Kingdom",175
"University of Exeter","United Kingdom",183
"University of Warwick","United Kingdom",209
"University of Reading","United Kingdom",213
"University of Leicester","United Kingdom",225
"Cardiff University","United Kingdom",227
"University of Essex","United Kingdom",236
"Bangor University","United Kingdom",263
"Brunel University London","United Kingdom",264
"Queen’s University Belfast","United Kingdom",268
"University of Bath","United Kingdom",273
"Aberystwyth University","United Kingdom",284
"Keele University","United Kingdom",316
"Plymouth University","United Kingdom",321
"University of Hertfordshire","United Kingdom",332
"University of Hull","United Kingdom",334
"University of Stirling","United Kingdom",343
"University of Surrey","United Kingdom",344
"Aston University","United Kingdom",353
"Heriot-Watt University","United Kingdom",362
"Liverpool John Moores University","United Kingdom",369
"Loughborough University","United Kingdom",370
"Swansea University","United Kingdom",386
"University of Kent","United Kingdom",392
"University of Strathclyde","United Kingdom",396
"St George’s, University of London","United Kingdom",407
"University of Portsmouth","United Kingdom",430
"Royal Veterinary College","United Kingdom",490
"Bournemouth University","United Kingdom",519
"City University London","United Kingdom",525
"The Open University","United Kingdom",546
"Oxford Brookes University","United Kingdom",547
"Ulster University","United Kingdom",558
"De Montfort University","United Kingdom",579
"Manchester Metropolitan University","United Kingdom",592
"University of Bradford","United Kingdom",653
"University of Brighton","United Kingdom",655
"University of Central Lancashire","United Kingdom",663
"Coventry University","United Kingdom",679
"Glasgow Caledonian University","United Kingdom",702
"University of Greenwich","United Kingdom",703
"University of Huddersfield","United Kingdom",705
"Kingston University","United Kingdom",719
"University of Lincoln","United Kingdom",727
"Middlesex University","United Kingdom",730
"Northumbria University","United Kingdom",743
"Nottingham Trent University","United Kingdom",745
"University of Salford","United Kingdom",763
"Sheffield Hallam University","United Kingdom",772
"University of the West of England","United Kingdom",810
"University of Westminster","United Kingdom",812
"ETH Zurich – Swiss Federal Institute of Technology Zurich","Switzerland",14
"University of Toronto","Canada",16
"University of Hong Kong","Hong Kong",20
"University of Tokyo","Japan",25
"Pohang University of Science and Technology","South Korea",27
"University of British Columbia","Canada",29
"National University of Singapore","Singapore",33
"McGill University","Canada",34
"University of Melbourne","Australia",35
"Peking University","China",36
"École Polytechnique","France",38
"Hong Kong University of Science and Technology","Hong Kong",40
"École Normale Supérieure","France",41
"Australian National University","Australia",42
"Karolinska Institute","Sweden",43
"University of Göttingen","Germany",44
"École Polytechnique Fédérale de Lausanne","Switzerland",47
"University of Science and Technology of China","China",49
"Kyoto University","Japan",56
"Tsinghua University","China",57
"LMU Munich","Germany",61
"University of Sydney","Australia",70
"University of Adelaide","Australia",72
"Trinity College Dublin","Republic of Ireland",75
"Korea Advanced Institute of Science and Technology (KAIST)","South Korea",78
"The University of Queensland","Australia",80
"Heidelberg University","Germany",82
"Lund University","Sweden",88
"University of Zurich","Switzerland",90
"McMaster University","Canada",92
"University College Dublin","Republic of Ireland",93
"University of Basel","Switzerland",96
"École Normale Supérieure de Lyon","France",99
"Technical University of Munich","Germany",100
"University of Helsinki","Finland",101
"National Tsing Hua University","Taiwan",106
"University of Cape Town","South Africa",107
"Seoul National University","South Korea",109
"Hong Kong Baptist University","Hong Kong",110
"Bilkent University","Turkey",111
"Tokyo Institute of Technology","Japan",112
"Eindhoven University of Technology","Netherlands",113
"National Taiwan University","Taiwan",114
"University of Geneva","Switzerland",117
"KU Leuven","Belgium",118
"Nanjing University","China",119
"Technical University of Denmark","Denmark",122
"Ghent University","Belgium",123
"Leiden University","Netherlands",125
"University of Alberta","Canada",126
"Stockholm University","Sweden",128
"Osaka University","Japan",129
"University of Victoria","Canada",130
"Tohoku University","Japan",131
"University of Freiburg","Germany",132
"University of Bergen","Norway",134
"University of Lausanne","Switzerland",135
"University of Montreal","Canada",137
"VU University Amsterdam","Netherlands",138
"Pierre and Marie Curie University","France",139
"University of Barcelona","Spain",141
"Utrecht University","Netherlands",142
"Wageningen University and Research Center","Netherlands",143
"University of Auckland","New Zealand",144
"Alexandria University","Egypt",146
"Uppsala University","Sweden",147
"Hong Kong Polytechnic University","Hong Kong",148
"Delft University of Technology","Netherlands",150
"University of New South Wales","Australia",153
"Pompeu Fabra University","Spain",154
"Erasmus University Rotterdam","Netherlands",158
"National Sun Yat-Sen University","Taiwan",162
"University of Amsterdam","Netherlands",164
"Aarhus University","Denmark",166
"University of Würzburg","Germany",168
"University of Groningen","Netherlands",169
"Sun Yat-sen University","China",170
"Goethe University Frankfurt","Germany",171
"Bielefeld University","Germany",172
"Nanyang Technological University","Singapore",173
"University of Copenhagen","Denmark",176
"Humboldt University of Berlin","Germany",177
"Monash University","Australia",178
"University of Bonn","Germany",179
"National Chiao Tung University","Taiwan",180
"RWTH Aachen University","Germany",181
"Middle East Technical University","Turkey",182
"University of Twente","Netherlands",184
"University of Konstanz","Germany",185
"Karlsruhe Institute of Technology","Germany",186
"University of Innsbruck","Austria",187
"University of Tübingen","Germany",188
"Yonsei University","South Korea",191
"Dalhousie University","Canada",192
"KTH Royal Institute of Technology","Sweden",193
"University of Vienna","Austria",194
"Zhejiang University","China",197
"Simon Fraser University","Canada",198
"Swedish University of Agricultural Sciences","Sweden",199
"University of Bern","Switzerland",203
"Hebrew University of Jerusalem","Israel",204
"Chinese University of Hong Kong","Hong Kong",207
"Free University of Berlin","Germany",208
"Radboud University Nijmegen","Netherlands",210
"Tel Aviv University","Israel",214
"Paris Diderot University – Paris 7","France",215
"Université Catholique de Louvain","Belgium",216
"Queen’s University","Canada",218
"University of São Paulo","Brazil",219
"University of Oslo","Norway",220
"University of Ottawa","Canada",221
"University of Western Australia","Australia",222
"City University of Hong Kong","Hong Kong",223
"Maastricht University","Netherlands",224
"Autonomous University of Barcelona","Spain",226
"Nagoya University","Japan",229
"Technion Israel Institute of Technology","Israel",231
"Ulm University","Germany",233
"Umeå University","Sweden",234
"University of Gothenburg","Sweden",238
"University of Otago","New Zealand",240
"University of Strasbourg","France",242
"University of Waterloo","Canada",243
"University of Western Ontario","Canada",244
"Université Libre de Bruxelles","Belgium",245
"Carleton University","Canada",246
"Chalmers University of Technology","Sweden",247
"Fudan University","China",250
"Korea University","South Korea",251
"Macquarie University","Australia",252
"Tokyo Metropolitan University","Japan",254
"University of Bologna","Italy",255
"University of Calgary","Canada",256
"University of Hamburg","Germany",257
"University of Milan","Italy",258
"University of Milan-Bicocca","Italy",259
"University of Padua","Italy",261
"University of Trieste","Italy",262
"Johannes Kepler University of Linz","Austria",265
"Kyushu University","Japan",266
"Norwegian University of Science and Technology","Norway",267
"Ruhr University Bochum","Germany",269
"Stellenbosch University","South Africa",270
"Tilburg University","Netherlands",271
"TU Dresden","Germany",272
"University of Graz","Austria",274
"University of Kiel","Germany",275
"University of Southern Denmark","Denmark",276
"University of the Witwatersrand","South Africa",278
"University of Tsukuba","Japan",279
"University of Wollongong","Australia",280
"Victoria University of Wellington","New Zealand",281
"Autonomous University of Madrid","Spain",285
"Hokkaido University","Japan",286
"Istanbul Technical University","Turkey",287
"Lomonosov Moscow State University","Russian Federation",288
"Montpellier University","France",289
"Queensland University of Technology","Australia",290
"State University of Campinas","Brazil",291
"Technical University of Darmstadt","Germany",292
"Tokyo Medical and Dental University (TMDU)","Japan",293
"UiT The Arctic University of Norway","Norway",294
"University of Antwerp","Belgium",295
"University of Crete","Greece",296
"University of Guelph","Canada",297
"University of Iceland","Iceland",298
"University of Münster","Germany",301
"University of Newcastle","Australia",302
"University of Trento","Italy",304
"York University","Canada",305
"Aalborg University","Denmark",306
"Aalto University","Finland",307
"Bar-Ilan University","Israel",308
"Boğaziçi University","Turkey",310
"Charles Darwin University","Australia",311
"Charles University in Prague","Czech Republic",312
"Indian Institute of Technology Bombay","India",314
"Jagiellonian University","Poland",315
"Keio University","Japan",317
"Linköping University","Sweden",319
"National Taiwan University of Science and Technology (Taiwan Tech)","Taiwan",320
"Polytechnic University of Milan","Italy",322
"Sapienza University of Rome","Italy",323
"Shanghai Jiao Tong University","China",324
"Sharif University of Technology","Iran",325
"Sungkyunkwan University (SKKU)","South Korea",326
"University College Cork","Republic of Ireland",327
"University of Aveiro","Portugal",328
"University of Canterbury","New Zealand",329
"University of Eastern Finland","Finland",330
"University of Ferrara","Italy",331
"University of Liège","Belgium",335
"University of Manitoba","Canada",336
"University of Modena and Reggio Emilia","Italy",338
"University of Pisa","Italy",340
"University of Porto","Portugal",341
"University of Tampere","Finland",345
"University of Tasmania","Australia",346
"University of Valencia","Spain",347
"University of Waikato","New Zealand",348
"University of Warsaw","Poland",349
"Vienna University of Technology","Austria",350
"Vrije Universiteit Brussel","Belgium",351
"Curtin University","Australia",356
"Deakin University","Australia",357
"Flinders University","Australia",358
"Griffith University","Australia",360
"Harbin Institute of Technology","China",361
"Hiroshima University","Japan",363
"Kobe University","Japan",365
"Kyung Hee University","South Korea",366
"La Trobe University","Australia",367
"Leibniz University of Hanover","Germany",368
"Mahidol University","Thailand",371
"Massey University","New Zealand",372
"National Central University","Taiwan",374
"National Taiwan Ocean University","Taiwan",375
"National University of Ireland, Galway","Republic of Ireland",376
"National University of Ireland, Maynooth","Republic of Ireland",377
"New University of Lisbon","Portugal",379
"Polytechnic University of Catalonia","Spain",381
"Polytechnic University of Turin","Italy",382
"Polytechnic University of Valencia","Spain",383
"Pontifical Catholic University of Chile","Chile",384
"Saint Petersburg State University","Russian Federation",385
"Swinburne University of Technology","Australia",387
"Tokyo University of Agriculture and Technology","Japan",388
"University of Bari Aldo Moro","Italy",389
"University of Coimbra","Portugal",390
"University of Paris North – Paris 13","France",393
"University of Salento","Italy",394
"University of South Australia","Australia",395
"University of Tartu","Estonia",397
"University of Turku","Finland",398
"University of Zaragoza","Spain",400
"Waseda University","Japan",401
"Wuhan University","China",402
"Yuan Ze University","Taiwan",403
"Paris-Sud University","France",404
"Joseph Fourier University","France",405
"Johannes Gutenberg University of Mainz","Germany",406
"University of Erlangen-Nuremberg","Germany",408
"Indian Institute of Technology Kharagpur","India",410
"Koç University","Turkey",411
"Laval University","Canada",412
"Mines ParisTech","France",413
"National Research Nuclear University MePhI","Russian Federation",414
"Bayreuth University","Germany",417
"University of Turin","Italy",420
"Claude Bernard University Lyon 1","France",421
"King Abdulaziz University","Saudi Arabia",422
"Medical University of Vienna","Austria",423
"Murdoch University","Australia",424
"National Cheng Kung University","Taiwan",425
"Renmin University of China","China",427
"University of Fribourg","Switzerland",428
"University of Pavia","Italy",429
"Indian Institute of Technology Roorkee","India",432
"King Mongkut’s University of Technology Thonburi","Thailand",433
"National Autonomous University of Mexico","Mexico",434
"Paris Dauphine University","France",435
"University of Duisburg-Essen","Germany",438
"University of Jyväskylä","Finland",439
"University of KwaZulu-Natal","South Africa",440
"University of Minho","Portugal",441
"University of Technology Sydney","Australia",442
"University of the Andes, Colombia","Colombia",443
"University of Vigo","Spain",444
"Panjab University","India",445
"University of Cologne","Germany",446
"Wuhan University of Technology","China",449
"China Medical University, Taiwan","Taiwan",450
"Hanyang University","South Korea",451
"Indian Institute of Technology Delhi","India",452
"Indian Institute of Technology Kanpur","India",453
"King Saud University","Saudi Arabia",454
"University of Florence","Italy",456
"University of Navarra","Spain",457
"University of Rovira i Virgili","Spain",458
"Scuola Normale Superiore di Pisa","Italy",459
"Sabancı University","Turkey",461
"Technical University of Berlin","Germany",462
"Federico Santa María Technical University","Chile",463
"University of Bremen","Germany",464
"Indian Institute of Science","India",466
"Lappeenranta University of Technology","Finland",467
"University of Macau","Macau",468
"Novosibirsk State University","Russian Federation",470
"University of Marrakech Cadi Ayyad","Morocco",471
"University of Stuttgart","Germany",473
"Ewha Womans University","South Korea",474
"Isfahan University of Technology","Iran",475
"Royal College of Surgeons in Ireland","Republic of Ireland",476
"University of Lisbon","Portugal",477
"University of Rome III","Italy",478
"University of Seoul","South Korea",479
"Western Sydney University","Australia",480
"University of Mannheim","Germany",481
"Scuola Superiore Sant’Anna","Italy",482
"University of Luxembourg","Luxembourg",483
"Charité - Universitätsmedizin Berlin","Germany",484
"Copenhagen Business School","Denmark",485
"Paris Descartes University","France",488
"Peter the Great St Petersburg Polytechnic University","Russian Federation",489
"Aix-Marseille University","France",492
"University of Bordeaux","France",493
"James Cook University","Australia",494
"Justus Liebig University Giessen","Germany",495
"Tomsk Polytechnic University","Russian Federation",498
"University of Greifswald","Germany",499
"Gwangju Institute of Science and Technology","South Korea",500
"University of Hohenheim","Germany",501
"Kazan Federal University","Russian Federation",502
"University of Naples Federico II","Italy",504
"Örebro University","Sweden",505
"Technical University of Dortmund","Germany",506
"Toulouse 1 Capitole University","France",507
"VŠB - Technical University of Ostrava","Czech Republic",508
"University of Cyprus","Cyprus",509
"University of St Gallen","Switzerland",510
"Graz University of Technology","Austria",511
"Instituto Superior Técnico Lisboa","Portugal",512
"University of Oulu","Finland",513
"Panthéon-Sorbonne University – Paris 1","France",514
"Lille 2 University – Health and Law","France",516
"Verona University","Italy",517
"University of Brescia","Italy",520
"Brno University of Technology","Czech Republic",521
"Ca’ Foscari University of Venice","Italy",522
"University of Cagliari","Italy",523
"Catholic University of the Sacred Heart","Italy",524
"Complutense University of Madrid","Spain",526
"Concordia University","Canada",527
"Dublin City University","Republic of Ireland",528
"East China University of Science and Technology","China",529
"University of Genoa","Italy",531
"Indian Institute of Technology Madras","India",533
"University of Ioannina","Greece",534
"Iran University of Science and Technology","Iran",535
"University of Kaiserslautern","Germany",536
"Makerere University","Uganda",538
"Marche Polytechnic University","Italy",539
"University of Nantes","France",540
"National and Kapodistrian University of Athens","Greece",541
"National Institute of Applied Sciences of Lyon (INSA Lyon)","France",542
"National Yang-Ming University","Taiwan",543
"University of Neuchâtel","Switzerland",544
"University of Nice Sophia Antipolis","France",545
"University of Palermo","Italy",548
"University of Parma","Italy",549
"RMIT University","Australia",550
"University of Rome II – Tor Vergata","Italy",551
"University of Saskatchewan","Canada",553
"University of Siena","Italy",554
"Southern Cross University","Australia",555
"Tampere University of Technology","Finland",556
"University of Ulsan","South Korea",557
"Université du Québec à Montréal","Canada",559
"Universiti Teknologi Malaysia","Malaysia",560
"University of Urbino Carlo Bo","Italy",561
"Xiamen University","China",562
"American University of Beirut","Lebanon",563
"Amirkabir University of Technology","Iran",564
"Babeş-Bolyai University","Romania",566
"University of the Basque Country","Spain",567
"Bauman Moscow State Technical University","Russian Federation",568
"Ben-Gurion University of the Negev","Israel",569
"Blaise Pascal University","France",570
"University of Burgundy","France",571
"University of Canberra","Australia",572
"University of Catania","Italy",573
"Central Queensland University","Australia",574
"University of Chile","Chile",575
"China Agricultural University","China",576
"Chung-Ang University","South Korea",577
"Czech Technical University in Prague","Czech Republic",578
"East China Normal University","China",580
"Edith Cowan University","Australia",581
"Federal University of Rio de Janeiro","Brazil",582
"University of Granada","Spain",583
"University of Haifa","Israel",584
"Huazhong University of Science and Technology","China",585
"Indian Institute of Technology Guwahati","India",586
"Jadavpur University","India",587
"Kanazawa University","Japan",588
"King Fahd University of Petroleum and Minerals","Saudi Arabia",589
"University of La Laguna","Spain",590
"University of Limerick","Republic of Ireland",591
"University of Maribor","Slovenia",593
"Masaryk University","Czech Republic",594
"Memorial University of Newfoundland","Canada",595
"Monterrey Institute of Technology and Higher Education","Mexico",598
"National Taiwan Normal University","Taiwan",599
"National Technical University of Athens","Greece",600
"Osaka City University","Japan",604
"Otto von Guericke University of Magdeburg","Germany",605
"University of Oviedo","Spain",606
"Palacký University in Olomouc","Czech Republic",607
"Pontifical Catholic University of Rio de Janeiro (PUC-Rio)","Brazil",608
"University of Pretoria","South Africa",610
"Pusan National University","South Korea",611
"Quaid-i-azam University","Pakistan",612
"University of Regina","Canada",613
"University of Rennes 1","France",614
"University of Salamanca","Spain",615
"University of Santiago de Compostela","Spain",616
"Semmelweis University","Hungary",617
"University of Seville","Spain",618
"Université de Sherbrooke","Canada",619
"Soochow University","China",620
"South China University of Technology","China",621
"Tallinn University of Technology","Estonia",622
"Tehran University of Medical Sciences","Iran",623
"Tianjin University","China",625
"Tongji University","China",627
"United Arab Emirates University","United Arab Emirates",629
"Xi’an Jiaotong University","China",631
"University of A Coruña","Spain",632
"Adam Mickiewicz University","Poland",633
"AGH University of Science and Technology","Poland",634
"Ajou University","South Korea",635
"University of Alcalá","Spain",636
"Alexandru Ioan Cuza University","Romania",637
"Aligarh Muslim University","India",638
"American University of Sharjah","United Arab Emirates",639
"Amrita University","India",640
"Anadolu University","Turkey",641
"Andhra University","India",642
"University of Antioquia","Colombia",643
"Aristotle University of Thessaloniki","Greece",644
"Asia University, Taiwan","Taiwan",645
"Athens University of Economics and Business","Greece",646
"Auckland University of Technology","New Zealand",647
"Austral University of Chile","Chile",648
"Beijing Institute of Technology","China",649
"Belarusian State University","Belarus",650
"University of Belgrade","Serbia",651
"Birla Institute of Technology and Science, Pilani","India",652
"University of Brasília","Brazil",654
"University of Bucharest","Romania",656
"Budapest University of Technology and Economics","Hungary",657
"Cairo University","Egypt",658
"University of Calcutta","India",659
"Capital Medical University","China",661
"University of Castilla-La Mancha","Spain",662
"University of Cergy-Pontoise","France",664
"Chang Gung University","Taiwan",665
"Carlos III University of Madrid","Spain",666
"University of Chemistry and Technology, Prague","Czech Republic",667
"Chiang Mai University","Thailand",668
"Chiba University","Japan",669
"China University of Geosciences (Wuhan)","China",670
"China University of Petroleum (Beijing)","China",671
"Chonbuk National University","South Korea",672
"Chongqing University","China",673
"Chonnam National University","South Korea",674
"Chulalongkorn University","Thailand",675
"Chung Yuan Christian University","Taiwan",676
"Chungnam National University","South Korea",677
"Comenius University in Bratislava","Slovakia",678
"Dalian University of Technology","China",680
"University of Debrecen","Hungary",681
"University of Delhi","India",682
"University of Dhaka","Bangladesh",683
"Dublin Institute of Technology","Republic of Ireland",684
"Ehime University","Japan",685
"University of Electronic Science and Technology of China","China",686
"Eötvös Loránd University","Hungary",687
"Erciyes University","Turkey",688
"Federal University of Bahia","Brazil",689
"Federal University of Minas Gerais","Brazil",690
"Federal University of Paraná (UFPR)","Brazil",691
"Federal University of Rio Grande do Sul","Brazil",692
"Federal University of Santa Catarina","Brazil",693
"Federal University of São Carlos","Brazil",694
"Federal University of Viçosa","Brazil",695
"Federal University of Lavras","Brazil",696
"Feng Chia University","Taiwan",697
"Fu Jen Catholic University","Taiwan",698
"Gdańsk University of Technology","Poland",699
"University of Ghana","Ghana",700
"Gifu University","Japan",701
"Hacettepe University","Turkey",704
"Hunan University","China",706
"University of Ibadan","Nigeria",707
"University of Indonesia","Indonesia",708
"Inha University","South Korea",709
"I-Shou University","Taiwan",710
"Istanbul University","Turkey",711
"Jilin University","China",712
"University of Jordan","Jordan",713
"Jordan University of Science and Technology","Jordan",714
"Juntendo University","Japan",715
"K.N. Toosi University of Technology","Iran",716
"Kaohsiung Medical University","Taiwan",717
"Khon Kaen University","Thailand",718
"Kinki University","Japan",720
"Konkuk University","South Korea",721
"Kumamoto University","Japan",722
"Kyungpook National University","South Korea",723
"Kyushu Institute of Technology","Japan",724
"University of Latvia","Latvia",725
"Lille 1 University – Science and Technology","France",726
"University of Ljubljana","Slovenia",728
"Moscow Institute of Physics and Technology","Russian Federation",731
"University of Murcia","Spain",732
"Nagasaki University","Japan",733
"University of Nairobi","Kenya",734
"National Chengchi University","Taiwan",735
"National Chung Cheng University","Taiwan",736
"National Chung Hsing University","Taiwan",737
"National Taipei University of Technology","Taiwan",738
"National University of Córdoba","Argentina",739
"National University of Science and Technology (MISiS)","Russian Federation",740
"National University of Sciences and Technology","Pakistan",741
"Niigata University","Japan",742
"Northwestern Polytechnical University","China",744
"Ocean University of China","China",747
"Okayama University","Japan",749
"Osaka Prefecture University","Japan",750
"University of Pardubice","Czech Republic",751
"Paris-Sorbonne University – Paris 4","France",752
"University of Patras","Greece",753
"University of Pécs","Hungary",754
"Pontifical Catholic University of Paraná","Brazil",755
"Pontifical Catholic University of Rio Grande do Sul (PUCRS)","Brazil",756
"Pontifical Catholic University of Valparaíso","Chile",757
"Prince of Songkla University","Thailand",758
"Qatar University","Qatar",759
"Rio de Janeiro State University (UERJ)","Brazil",760
"Saitama University","Japan",762
"University of Santiago, Chile (USACH)","Chile",764
"São Paulo State University (UNESP)","Brazil",765
"Savitribai Phule Pune University","India",766
"University of Science and Technology Beijing","China",767
"Sejong University","South Korea",768
"Shahid Beheshti University","Iran",769
"Shanghai University","China",770
"Shantou University","China",771
"Shinshu University","Japan",773
"Showa University","Japan",774
"Sichuan University","China",775
"University of Silesia in Katowice","Poland",776
"Slovak University of Technology in Bratislava","Slovakia",777
"Sogang University","South Korea",778
"Sophia University","Japan",779
"University of South Africa","South Africa",780
"Southern Federal University","Russian Federation",781
"University of Southern Queensland","Australia",783
"Suez Canal University","Egypt",784
"Sultan Qaboos University","Oman",785
"Suranaree University of Technology","Thailand",786
"University of Szeged","Hungary",787
"Taipei Medical University","Taiwan",788
"Taras Shevchenko National University of Kyiv","Ukraine",789
"Technical University of Madrid","Spain",790
"University of Tehran","Iran",791
"Tokai University","Japan",794
"Tokushima University","Japan",795
"Tokyo University of Marine Science and Technology","Japan",796
"Tokyo University of Science","Japan",797
"Tomsk State University","Russian Federation",798
"Tottori University","Japan",799
"Toyohashi University of Technology","Japan",800
"Universiti Kebangsaan Malaysia","Malaysia",801
"Universiti Putra Malaysia","Malaysia",802
"Universiti Sains Malaysia","Malaysia",803
"Universiti Teknologi MARA","Malaysia",804
"Ural Federal University","Russian Federation",805
"V.N. Karazin Kharkiv National University","Ukraine",806
"Vilnius University","Lithuania",807
"Warsaw University of Technology","Poland",808
"University of West Bohemia","Czech Republic",809
"West University of Timişoara","Romania",811
"Xidian University","China",813
"Yeungnam University","South Korea",814
"Yıldız Technical University","Turkey",815
"Yokohama City University","Japan",816
"Yokohama National University","Japan",817
