country_name,Average schooling years 2005,Average schooling years 2010
"Afghanistan",2.2,2.8
"Albania",9,9.4
"Algeria",4.4,5
"Argentina",9.1,9.3
"Armenia",10.3,10.5
"Australia",11.1,11.4
"Austria",9.2,9.5
"Bahrain",6,5.9
"Bangladesh",4.5,5
"Barbados",9.1,9.3
"Belgium",10.4,10.5
"Belize",10.5,11.4
"Benin",2.7,3.3
"Bolivia",7.1,7.1
"Botswana",7.3,7.8
"Brazil",6.2,6.9
"Brunei Darussalam",7.4,8
"Bulgaria",10.1,11.1
"Burundi",2.1,2.4
"Cambodia",3.3,3.9
"Cameroon",4.5,5
"Canada",11.8,12.2
"Central African Republic",2.7,3
"Chile",9,9.4
"China",6.5,7
"Colombia",6.4,8.2
"Congo, Dem. Rep.",2.7,3
"Congo, Rep.",4.6,5.1
"Costa Rica",7.8,7.6
"Cote d'Ivoire",3.2,3.6
"Croatia",10.6,11.4
"Cuba",8.7,9.6
"Cyprus",8.7,10.6
"Czech Republic",12.7,12.7
"Denmark",10.7,11.1
"Dominican Republic",6.5,7.1
"Ecuador",6.4,6.7
"Egypt, Arab Rep.",5.2,5.7
"El Salvador",6.1,6.9
"Estonia",11.7,12.1
"Fiji",8.5,9.1
"Finland",9.7,11.5
"France",10.1,10.5
"Gabon",5.9,6.6
"Gambia, The",2.4,2.8
"Germany",11.5,12.3
"Ghana",5.9,6.3
"Greece",9.8,10.1
"Guatemala",3.4,4.1
"Guyana",7.7,8.1
"Haiti",3.7,4
"Honduras",4.9,5.4
"Hong Kong SAR, China",10.2,10.7
"Hungary",11.6,11.8
"Iceland",9.9,10.5
"India",4.6,5.2
"Indonesia",5.5,6.7
"Iran, Islamic Rep.",6.3,7.7
"Iraq",4.5,5.3
"Ireland",10.9,11.6
"Israel",11.5,12.2
"Italy",8.9,9.5
"Jamaica",8.7,9.1
"Japan",11.2,11.6
"Jordan",7.3,8.1
"Kazakhstan",10.9,11.1
"Kenya",4.7,4.9
"Korea, Rep.",10.3,11.2
"Kuwait",5.6,5.9
"Kyrgyz Republic",9.5,10.5
"Lao PDR",3.7,4.1
"Latvia",10,10.4
"Lesotho",5.9,5.2
"Liberia",3.1,3.5
"Libya",5.5,6.3
"Lithuania",10.1,10.6
"Luxembourg",10,10.8
"Macao SAR, China",6.8,7.8
"Malawi",3.3,3.7
"Malaysia",8.1,8.9
"Maldives",3.1,4
"Mali",1.1,1.5
"Malta",9.7,10.1
"Mauritania",3.1,3.5
"Mauritius",6.9,8
"Mexico",7.4,7.7
"Moldova",9,10.2
"Mongolia",7.8,8.6
"Morocco",3.2,3.8
"Mozambique",1,1.3
"Myanmar",3.4,3.9
"Namibia",5.2,5.5
"Nepal",2.6,3.1
"Netherlands",10.7,11.3
"New Zealand",11.5,10.8
"Nicaragua",4.9,5.5
"Niger",1.1,1.3
"Norway",11.7,11.6
"Pakistan",4.5,4.1
"Panama",8.3,8.6
"Papua New Guinea",2.9,3.4
"Paraguay",6.7,6.9
"Peru",8.6,8
"Philippines",7.3,7.5
"Poland",10.6,11
"Portugal",6.7,7.3
"Qatar",6,7.9
"Romania",10,10.4
"Russian Federation",10.7,11.1
"Rwanda",2.7,3.1
"Saudi Arabia",6.4,7
"Senegal",1.3,2.3
"Serbia",9.5,10.7
"Sierra Leone",2.4,3
"Singapore",8.2,9.9
"Slovak Republic",12,12.7
"Slovenia",11.5,11.8
"South Africa",7.7,8.8
"Spain",10.1,10
"Sri Lanka",9.6,9.5
"Sudan",2.3,2.6
"Swaziland",3,3.6
"Sweden",11.5,11.6
"Switzerland",10.5,13
"Syrian Arab Republic",4.8,5.7
"Tajikistan",10.3,10.5
"Tanzania",4.2,4.7
"Thailand",6.4,6.8
"Togo",3.8,4.4
"Tonga",8.8,10.5
"Trinidad and Tobago",9.3,10.1
"Tunisia",5.2,6.1
"Turkey",5.6,6.3
"Uganda",3.9,4.7
"Ukraine",10.6,10.9
"United Arab Emirates",7.7,8.2
"United Kingdom",10.9,11.9
"United States",12.8,13.2
"Uruguay",8,8
"Venezuela, RB",6.5,7.4
"Vietnam",6,6.9
"Yemen, Rep.",1.6,2.1
"Zambia",5.4,6.1
"Zimbabwe",5.9,6.3
