{
  "inferences": [
    "1P_Custom_Android_Loyalists_Latest_Release",
    "1P_Custom_Christmas_Holiday_Playlist_Streamers",
    "1P_Custom_Christmas_Holidays_Hub_Streamers",
    "1P_Custom_In-Car Streamers",
    "1P_Custom_LxA_Users",
    "1P_Custom_Meditation",
    "1P_Custom_Morning_Playlist_Streamers",
    "1P_Custom_Passionate_Curators",
    "1P_Custom_Personal_Wellness",
    "1P_Custom_Relaxation",
    "1P_Custom_Samsung_Galaxy_Note_Users",
    "1P_Custom_Samsung_Galaxy_S_Note_12M+_Users",
    "1P_Custom_Samsung_Lapsed Mobile Audience",
    "1P_Custom_Samsung_N-4_and_Below_Users",
    "1P_Custom_Samsung_Podcast_Streamers",
    "1P_Custom_Samsung_Social",
    "1P_Custom_Samsung_TV_Switchers",
    "1P_Custom_Samsung_samsungTablet_12M_Users",
    "1P_Custom_Samsung_samsungTablet_4Y_Users",
    "1P_Custom_Self_Love",
    "1P_Custom_Smart_Technology_Streamers",
    "1P_Custom_T-Mobile_Switchers",
    "1P_Custom_iPhone_Non_SE_12_Model_Streamers",
    "1P_Podcast Listeners_True Crime",
    "3P_Custom_Toys & Board / Card Games Enthusiasts_FR",
    "Comedy",
    "Culture & Society",
    "DO NOT USE_3P_Entertainment Enthusiasts_BR",
    "DO NOT USE_3P_Entertainment Enthusiasts_MX",
    "Health & Lifestyle",
    "History",
    "In-Car Listening",
    "Love & Dating",
    "Recaptcha_scores_filtered"
  ]
}